<?xml version="1.0" encoding="iso-8859-1"?>
<!-- Generator: Adobe Illustrator 19.0.0, SVG Export Plug-In . SVG Version: 6.00 Build 0)  -->
<svg version="1.1" id="Capa_1" xmlns="http://www.w3.org/2000/svg" xmlns:xlink="http://www.w3.org/1999/xlink" x="0px" y="0px"
	 viewBox="0 0 384 384" style="enable-background:new 0 0 384 384;" xml:space="preserve">
<g>
	<g>
		<path d="M276.584,116.336c2.992-8.968,4.72-18.328,4.72-27.808C281.304,39.712,241.224,0,191.96,0s-89.336,39.712-89.336,88.528
			c0,9.488,1.72,18.856,4.712,27.816C61.12,141.048,32,188.536,32,241.52C32,320.08,96.56,384,175.92,384h32.168
			C287.44,384,352,320.08,352,241.52C352,188.52,322.84,141.024,276.584,116.336z M191.952,32c31.624,0,57.344,25.36,57.344,56.528
			c0,5.368-0.784,10.72-2.304,15.856c-4.816-1.328-9.728-2.36-14.704-3.192c-5.84-16.632-21.624-28.664-40.344-28.664
			c-18.576,0-34.272,11.928-40.16,28.648c-5.024,0.84-9.992,1.864-14.872,3.216c-1.52-5.136-2.304-10.488-2.304-15.864
			C134.616,57.36,160.336,32,191.952,32z M208.096,352h-32.168c-61.712,0-111.92-49.56-111.92-110.48
			C64,196.24,91.472,156.024,134,139.072c10.296-4.088,21.232-6.64,32.408-7.568c3.144-0.24,6.288-0.4,9.512-0.4h32.168
			c3.192,0,6.336,0.16,9.456,0.4c11.208,0.944,22.096,3.488,32.36,7.56c0.008,0,0.008,0.008,0.016,0.008
			c42.576,16.936,70.088,57.152,70.088,102.448C320.008,302.44,269.808,352,208.096,352z"/>
	</g>
</g>
<g>
	<g>
		<path d="M208.608,153.152h-33.224c-49.192,0-89.208,39.656-89.208,88.4c-0.008,48.736,40.016,88.392,89.208,88.392h33.224
			c49.184,0,89.208-39.656,89.208-88.392C297.816,192.808,257.792,153.152,208.608,153.152z M208.608,297.944h-33.224
			c-31.544,0-57.208-25.296-57.208-56.392c-0.008-31.104,25.656-56.4,57.208-56.4h33.224c31.544,0,57.208,25.304,57.208,56.4
			S240.152,297.944,208.608,297.944z"/>
	</g>
</g>
<g>
	<g>
		<path d="M159.8,210.8c-8.832,0-16,7.168-16,16v29.504c0,8.84,7.16,16,16,16c8.832,0,16-7.168,16-16V226.8
			C175.8,217.968,168.632,210.8,159.8,210.8z"/>
	</g>
</g>
<g>
	<g>
		<path d="M224.192,210.8c-8.832,0-16,7.168-16,16v29.504c0,8.84,7.168,16,16,16c8.832,0,16-7.168,16-16V226.8
			C240.192,217.968,233.024,210.8,224.192,210.8z"/>
	</g>
</g>
<g>
</g>
<g>
</g>
<g>
</g>
<g>
</g>
<g>
</g>
<g>
</g>
<g>
</g>
<g>
</g>
<g>
</g>
<g>
</g>
<g>
</g>
<g>
</g>
<g>
</g>
<g>
</g>
<g>
</g>
</svg>
